id,name,model_id:id,group_id:id,perm_read,perm_write,perm_create,perm_unlink
access_ab_hr_payroll_user,hr.payslip.run,hr_payroll.model_hr_payslip_run,group_hr_payroll_user,1,1,1,1
access_ab_hr_payroll_acc,hr.payslip.run.acc,hr_payroll.model_hr_payslip_run,account.group_account_user,1,1,1,1
access_ab_hr_payroll_manager,hr.payslip.run,hr_payroll.model_hr_payslip_run,group_hr_payroll_manager,1,1,0,0
access_hr_ptkp,hr.ptkp,model_hr_ptkp,,1,1,1,1

access_salary_structure_hr,salary_structure_hr,hr_payroll.model_hr_payroll_structure,ab_role.group_hod_human_resource,1,1,1,1
access_salary_structure_line_hr,salary_structure_line_hr,hr_payroll.model_hr_salary_rule,ab_role.group_hod_human_resource,1,1,1,1