id,name,model_id:id,group_id:id,perm_read,perm_write,perm_create,perm_unlink
access_item_type_user,ab_hr_inventory.item.type,model_item_type,,1,1,1,1
access_inventory_part_user,ab_hr_inventory.inventory.part,model_inventory_part,,1,1,1,1

access_product_t_pa,product_t.pa,product.model_product_template,ab_role.group_project_admin,1,0,0,0
access_product_t_pl,product_t.pl,product.model_product_template,ab_role.group_project_leader,1,0,0,0
access_product_t_bd,product_t.bd,product.model_product_template,ab_role.group_bussines_demand,1,0,0,0
access_product_t_pm,product_t.pm,product.model_product_template,project.group_project_manager,1,0,0,0
access_product_t_hr,product_t.hr,product.model_product_template,ab_role.group_hod_human_resource,1,0,0,0
access_product_t_ga,product_t.ga,product.model_product_template,ab_role.group_hod_general_affair,1,1,1,1
access_product_t_fin,product_t.fin,product.model_product_template,account.group_account_invoice,1,0,0,0
access_product_t_pur,product_t.pur,product.model_product_template,purchase.group_purchase_manager,1,1,1,1
access_product_t_tax,product_t.tax,product.model_product_template,ab_role.group_tax,1,0,0,0
access_product_t_acc,product_t.acc,product.model_product_template,account.group_account_user,1,0,0,0
access_product_t_fat,product_t.fat,product.model_product_template,ab_role.group_hod_fat,1,1,1,1
access_product_t_ceo,product_t.ceo,product.model_product_template,ab_role.group_direktur,1,0,0,0

access_mrp_pa,mrp_p.pa,mrp.model_mrp_production,ab_role.group_project_admin,1,0,0,0
access_mrp_p_pl,mrp_p.pl,mrp.model_mrp_production,ab_role.group_project_leader,1,0,0,0
access_mrp_p_bd,mrp_p.bd,mrp.model_mrp_production,ab_role.group_bussines_demand,1,0,0,0
access_mrp_p_pm,mrp_p.pm,mrp.model_mrp_production,project.group_project_manager,1,0,0,0
access_mrp_p_hr,mrp_p.hr,mrp.model_mrp_production,ab_role.group_hod_human_resource,1,0,0,0
access_mrp_p_ga,mrp_p.ga,mrp.model_mrp_production,ab_role.group_hod_general_affair,1,1,1,1
access_mrp_p_fin,mrp_p.fin,mrp.model_mrp_production,account.group_account_invoice,1,0,0,0
access_mrp_p_pur,mrp_p.pur,mrp.model_mrp_production,purchase.group_purchase_manager,1,1,1,1
access_mrp_p_tax,mrp_p.tax,mrp.model_mrp_production,ab_role.group_tax,1,0,0,0
access_mrp_p_acc,mrp_p.acc,mrp.model_mrp_production,account.group_account_user,1,0,0,0
access_mrp_p_fat,mrp_p.fat,mrp.model_mrp_production,ab_role.group_hod_fat,1,1,1,1
access_mrp_p_ceo,mrp_p.ceo,mrp.model_mrp_production,ab_role.group_direktur,1,0,0,0
