id,name,model_id:id,group_id:id,perm_read,perm_write,perm_create,perm_unlink
access_cicilan_user,hr.cicilan,model_hr_cicilan,group_hr_cicilan_user,1,1,1,1
access_cicilan_manager,hr.cicilan,model_hr_cicilan,group_hr_cicilan_manager,1,1,1,1
access_cicilan_line_user,hr.cicilan.line,model_hr_cicilan_line,group_hr_cicilan_user,1,1,1,0
access_cicilan_line_manager,hr.cicilan.line,model_hr_cicilan_line,group_hr_cicilan_manager,1,1,1,0
access_cicilan_line_hr,hr.cicilan,model_hr_cicilan,base.group_user,1,1,1,0
access_group_hr_manager_cicilan,hr.cicilan,model_hr_cicilan,hr.group_hr_manager,1,1,1,1
access_jenis_cicilan_hr,jenis.cicilan,model_jenis_cicilan,hr.group_hr_manager,1,1,1,1
access_cicilan_line_manager_hr,hr.cicilan.line,model_hr_cicilan_line,hr.group_hr_manager,1,1,1,1
access_jenis_cicilan_user_hr,jenis.cicilan,model_jenis_cicilan,base.group_user,1,0,0,0