id,name,model_id:id,group_id:id,perm_read,perm_write,perm_create,perm_unlink

access_uom_uom_user,om_account_asset.uom.uom,uom.model_uom_uom,purchase.group_purchase_manager,1,1,1,1
access_helpdesk_lite_pa,helpdesk_lite_pa,helpdesk_lite.model_helpdesk_lite_ticket,ab_role.group_project_admin,1,1,1,1
access_helpdesk_lite_pl,helpdesk_lite_pl,helpdesk_lite.model_helpdesk_lite_ticket,ab_role.group_project_leader,1,1,1,1
access_helpdesk_lite_pm,helpdesk_lite_pm,helpdesk_lite.model_helpdesk_lite_ticket,project.group_project_manager,1,1,1,1
