id,name,model_id:id,group_id:id,perm_read,perm_write,perm_create,perm_unlink
access_hr_project_department,access_hr_project_department,model_hr_project_department,,1,1,1,1
access_hr_contract,access_hr_contract,model_hr_contract,,1,1,1,1

access_company_hr,hr_company,base.model_res_company,ab_role.group_hod_human_resource,1,1,1,1
access_employee_hr,hr_employee,hr.model_hr_employee,ab_role.group_hod_human_resource,1,1,1,1
access_user_hr,res_user,base.model_res_users,ab_role.group_hod_human_resource,1,1,1,1
access_groups_hr,res_groups,base.model_res_groups,ab_role.group_hod_human_resource,1,1,1,1
access_division_hr,hr_division,hr.model_hr_department,ab_role.group_hod_human_resource,1,1,1,1
access_applicant_hr,hr_applicant,hr_recruitment.model_hr_applicant,ab_role.group_hod_human_resource,1,1,1,1
access_department_hr,hr_departmrnt,model_hr_project_department,ab_role.group_hod_human_resource,1,1,1,1

access_employee_pa,hr_employee,hr.model_hr_employee,ab_role.group_project_admin,1,0,0,0
access_employee_fat,hr_employee,hr.model_hr_employee,ab_role.group_hod_fat,1,0,0,0
hr.access_hr_employee_user,hr.employee user,hr.model_hr_employee,,1,0,0,0

access_tag_employee_pa,hr_employee_tag_pa,hr.model_hr_employee_category,ab_role.group_project_admin,1,1,1,1
access_tag_employee_hod,hr_employee_tag_hod,hr.model_hr_employee_category,ab_role.group_hod_hod,1,1,1,1
access_tag_employee_hr,hr_employee_tag_hod,hr.model_hr_employee_category,ab_role.group_hod_human_resource,1,1,1,1
