id,name,model_id:id,group_id:id,perm_read,perm_write,perm_create,perm_unlink
access_surat_tugas,access_surat_tugas,model_surat_tugas,,1,1,1,1
access_surat_tugas_line,access_surat_tugas_line,model_surat_tugas_line,,1,1,1,1
