id,name,model_id:id,group_id:id,perm_read,perm_write,perm_create,perm_unlink
access_disposisi_disposisi,disposisi_disposisi.disposisi_disposisi,model_disposisi_disposisi,,1,1,0,0
access_disposisi_create,disposisi_disposisi.disposisi_disposisi,model_disposisi_disposisi,ab_role.group_direktur,1,1,1,1
access_disposisi_create group_hod_hod,disposisi_disposisi.disposisi_disposisi,model_disposisi_disposisi,ab_role.group_hod_hod,1,1,0,0